Lecture 5 - Linear models with tidymodels
…
tic()
tune_result <- workflow %>% 
  tune_grid(validation_split,
            grid = param_grid,
            metrics = metric_set(rmse))
toc()

## 44.37 sec elapsed

tune_result %>% 
  collect_metrics()

## # A tibble: 1,000 x 8
##     penalty mixture .metric .estimator  mean     n std_err .config              
##       <dbl>   <dbl> <chr>   <chr>      <dbl> <int>   <dbl> <chr>                
##  1 1.00e-10       0 rmse    standard   0.119    10 0.00405 Preprocessor1_Model0~
##  2 1.26e-10       0 rmse    standard   0.119    10 0.00405 Preprocessor1_Model0~
##  3 1.59e-10       0 rmse    standard   0.119    10 0.00405 Preprocessor1_Model0~
##  4 2.01e-10       0 rmse    standard   0.119    10 0.00405 Preprocessor1_Model0~
##  5 2.54e-10       0 rmse    standard   0.119    10 0.00405 Preprocessor1_Model0~
##  6 3.20e-10       0 rmse    standard   0.119    10 0.00405 Preprocessor1_Model0~
##  7 4.04e-10       0 rmse    standard   0.119    10 0.00405 Preprocessor1_Model0~
##  8 5.09e-10       0 rmse    standard   0.119    10 0.00405 Preprocessor1_Model0~
##  9 6.43e-10       0 rmse    standard   0.119    10 0.00405 Preprocessor1_Model0~
## 10 8.11e-10       0 rmse    standard   0.119    10 0.00405 Preprocessor1_Model0~
## # ... with 990 more rows
…
elastic_model <- 
    linear_reg(penalty = tune_best$penalty,
               mixture = tune_best$mixture) %>%
    set_engine("glmnet")

elastic_fit <- 
    elastic_model %>% 
    fit(sale_price ~ ., data = train2)

options(max.print = 10)
elastic_fit %>% 
    tidy() %>% 
    filter(estimate > 0.001)

## # A tibble: 64 x 3
##    term           estimate penalty
##    <chr>             <dbl>   <dbl>
##  1 (Intercept)    12.0     0.00756
##  2 lot_frontage    0.0109  0.00756
##  3 lot_area        0.0143  0.00756
##  4 overall_qual    0.0783  0.00756
##  5 overall_cond    0.0409  0.00756
##  6 year_built      0.0466  0.00756
##  7 year_remod_add  0.0174  0.00756
##  8 mas_vnr_area    0.00120 0.00756
##  9 bsmt_fin_sf1    0.0283  0.00756
## 10 bsmt_fin_sf2    0.00219 0.00756
## # ... with 54 more rows
…
