Lecture 5 - Linear models with tidymodels
…
##  [1] "id"           "ms_sub_class" "ms_zoning"    "lot_frontage" "lot_area"    
##  [6] "street"       "alley"        "lot_shape"    "land_contour" "utilities"

Summary variables

summary_model_train <- train %>% 
  group_by(ms_sub_class, ms_zoning, overall_qual, house_style) %>% 
  summarise(sale_price_mean = mean(sale_price, na.rm = TRUE),
            sale_price_std = sd(sale_price, na.rm = TRUE))

## `summarise()` has grouped output by 'ms_sub_class', 'ms_zoning', 'overall_qual'. You can override using the `.groups` argument.

summary_model_train

## # A tibble: 180 x 6
## # Groups:   ms_sub_class, ms_zoning, overall_qual [147]
##    ms_sub_class ms_zoning overall_qual house_style sale_price_mean
##           <dbl> <chr>            <dbl> <chr>                 <dbl>
##  1           20 C (all)              2 1Story               35311 
##  2           20 C (all)              5 1Story               55993 
##  3           20 FV                   6 1Story              196650 
##  4           20 FV                   7 1Story              200555 
##  5           20 FV                   8 1Story              243564 
##  6           20 FV                   9 1Story              370878 
##  7           20 RH                   4 1Story               94500 
##  8           20 RH                   5 1Story              119900 
##  9           20 RL                   1 1Story               39300 
## 10           20 RL                   3 1Story               98033.
## # ... with 170 more rows, and 1 more variable: sale_price_std <dbl>

summary_model <- all_data %>% 
  left_join(y = summary_model_train, 
            by = c("ms_sub_class"="ms_sub_class",
                   "ms_zoning" = "ms_zoning",
                   "overall_qual"="overall_qual",
                   "house_style"="house_style")) %>% 
  select(sale_price_mean, sale_price_std)
summary_model

## # A tibble: 2,905 x 2
##    sale_price_mean sale_price_std
##              <dbl>          <dbl>
##  1         225003.         43683.
##  2         170177.         29601.
##  3         225003.         43683.
##  4         195050          44243.
##  5         287920.         62364.
##  6         130877.         26620.
##  7         282824.         59485.
##  8         225003.         43683.
##  9         154075          37919.
## 10         118000             NA 
## # ... with 2,895 more rows

summary_model$sale_price_mean[is.na(summary_model$sale_price_mean)] <- 0
summary_model$sale_price_std[is.na(summary_model$sale_price_std)] <- 0

all_data <- bind_cols(all_data, summary_model) 
all_data

## # A tibble: 2,905 x 83
##       id ms_sub_class ms_zoning lot_frontage lot_area street alley lot_shape
##    <dbl>        <dbl> <chr>            <dbl>    <dbl> <chr>  <chr> <chr>    
##  1     1           60 RL                  65     8450 Pave   <NA>  Reg      
##  2     2           20 RL                  80     9600 Pave   <NA>  Reg      
##  3     3           60 RL                  68    11250 Pave   <NA>  IR1      
##  4     4           70 RL                  60     9550 Pave   <NA>  IR1      
##  5     5           60 RL                  84    14260 Pave   <NA>  IR1      
##  6     6           50 RL                  85    14115 Pave   <NA>  IR1      
##  7     7           20 RL                  75    10084 Pave   <NA>  Reg      
##  8     8           60 RL                  NA    10382 Pave   <NA>  IR1      
##  9     9           50 RM                  51     6120 Pave   <NA>  Reg      
## 10    10          190 RL                  50     7420 Pave   <NA>  Reg      
## # ... with 2,895 more rows, and 75 more variables: land_contour <chr>,
## #   utilities <chr>, lot_config <chr>, land_slope <chr>, neighborhood <chr>,
## #   condition1 <chr>, condition2 <chr>, bldg_type <chr>, house_style <chr>,
## #   overall_qual <dbl>, overall_cond <dbl>, year_built <dbl>,
## #   year_remod_add <dbl>, roof_style <chr>, roof_matl <chr>, exterior1st <chr>,
## #   exterior2nd <chr>, mas_vnr_type <chr>, mas_vnr_area <dbl>,
## #   exter_qual <chr>, exter_cond <chr>, foundation <chr>, bsmt_qual <chr>,
## #   bsmt_cond <chr>, bsmt_exposure <chr>, bsmt_fin_type1 <chr>,
## #   bsmt_fin_sf1 <dbl>, bsmt_fin_type2 <chr>, bsmt_fin_sf2 <dbl>,
…
5.3 juice the all_data2 and split

all_data2 <- juice(housing_recipe)
all_data2

## # A tibble: 2,905 x 313
##    lot_frontage lot_area overall_qual overall_cond year_built year_remod_add
##           <dbl>    <dbl>        <dbl>        <dbl>      <dbl>          <dbl>
##  1       -0.452  -0.481             1            0      1.25           0.513
##  2        1.21    0.0847            0            6      0.125         -0.872
##  3       -0.119   0.897             1            0      1.17           0.462
##  4       -1.01    0.0601            1            0     -2.42          -1.18 
##  5        1.66    2.38              2            0      1.12           0.359
##  6        1.77    2.31             -1            0      0.833          0.103
##  7        0.659   0.323             2            0      1.29           0.615
##  8        0       0.470             1            2      0             -1.03 
##  9       -2.01   -1.63              1            0     -1.75          -2.21 
## 10       -2.12   -0.988            -1            2     -1.42          -2.21 
## # ... with 2,895 more rows, and 307 more variables: mas_vnr_area <dbl>,
## #   exter_cond <dbl>, bsmt_qual <dbl>, bsmt_cond <dbl>, bsmt_fin_sf1 <dbl>,
## #   bsmt_fin_sf2 <dbl>, bsmt_unf_sf <dbl>, total_bsmt_sf <dbl>,
## #   x1st_flr_sf <dbl>, x2nd_flr_sf <dbl>, low_qual_fin_sf <dbl>,
## #   gr_liv_area <dbl>, bsmt_full_bath <dbl>, bsmt_half_bath <dbl>,
## #   full_bath <dbl>, half_bath <dbl>, bedroom_abv_gr <dbl>,
## #   kitchen_abv_gr <dbl>, tot_rms_abv_grd <dbl>, fireplaces <dbl>,
## #   garage_yr_blt <dbl>, garage_cars <dbl>, garage_area <dbl>,
## #   garage_qual <dbl>, garage_cond <dbl>, wood_deck_sf <dbl>,
…
tune_result %>% 
  collect_metrics()

## # A tibble: 1,000 x 8
##     penalty mixture .metric .estimator  mean     n std_err .config              
##       <dbl>   <dbl> <chr>   <chr>      <dbl> <int>   <dbl> <chr>                
##  1 1.00e-10       0 rmse    standard   0.115    10 0.00444 Preprocessor1_Model0~
##  2 1.26e-10       0 rmse    standard   0.115    10 0.00444 Preprocessor1_Model0~
##  3 1.59e-10       0 rmse    standard   0.115    10 0.00444 Preprocessor1_Model0~
##  4 2.01e-10       0 rmse    standard   0.115    10 0.00444 Preprocessor1_Model0~
##  5 2.54e-10       0 rmse    standard   0.115    10 0.00444 Preprocessor1_Model0~
##  6 3.20e-10       0 rmse    standard   0.115    10 0.00444 Preprocessor1_Model0~
##  7 4.04e-10       0 rmse    standard   0.115    10 0.00444 Preprocessor1_Model0~
##  8 5.09e-10       0 rmse    standard   0.115    10 0.00444 Preprocessor1_Model0~
##  9 6.43e-10       0 rmse    standard   0.115    10 0.00444 Preprocessor1_Model0~
## 10 8.11e-10       0 rmse    standard   0.115    10 0.00444 Preprocessor1_Model0~
## # ... with 990 more rows
…
elastic_fit <- 
    elastic_model %>% 
    fit(sale_price ~ ., data = train2)

options(max.print = 10)
elastic_fit %>% 
    tidy() %>% 
    arrange(desc(estimate)) %>% 
    filter(estimate > 0.001)

## # A tibble: 61 x 3
##    term                 estimate penalty
##    <chr>                   <dbl>   <dbl>
##  1 (Intercept)           12.0    0.00955
##  2 pool_qc_Gd             0.107  0.00955
##  3 neighborhood_Crawfor   0.104  0.00955
##  4 neighborhood_StoneBr   0.0705 0.00955
##  5 roof_matl_Membran      0.0698 0.00955
##  6 exterior1st_BrkFace    0.0554 0.00955
##  7 foundation_Stone       0.0423 0.00955
##  8 sale_type_New          0.0413 0.00955
##  9 kitchen_qual_Ex        0.0384 0.00955
## 10 roof_matl_WdShngl      0.0383 0.00955
## # ... with 51 more rows
…
