Lecture 6 - random forest with tidymodels
…
##  [1] "id"           "ms_sub_class" "ms_zoning"    "lot_frontage" "lot_area"    
##  [6] "street"       "alley"        "lot_shape"    "land_contour" "utilities"

Summary variables

summary_model_train <- train %>% 
  group_by(ms_sub_class, ms_zoning, overall_qual, house_style) %>% 
  summarise(sale_price_mean = mean(sale_price, na.rm = TRUE),
            sale_price_std = sd(sale_price, na.rm = TRUE))

## `summarise()` has grouped output by 'ms_sub_class', 'ms_zoning', 'overall_qual'. You can override using the `.groups` argument.

summary_model_train

## # A tibble: 176 x 6
## # Groups:   ms_sub_class, ms_zoning, overall_qual [143]
##    ms_sub_class ms_zoning overall_qual house_style sale_price_mean
##           <dbl> <chr>            <dbl> <chr>                 <dbl>
##  1           20 C (all)              5 1Story               55993 
##  2           20 FV                   6 1Story              196650 
##  3           20 FV                   7 1Story              200555 
##  4           20 FV                   8 1Story              243564 
##  5           20 FV                   9 1Story              370878 
##  6           20 RH                   4 1Story               94500 
##  7           20 RH                   5 1Story              119900 
##  8           20 RL                   3 1Story               98033.
##  9           20 RL                   4 1Story              122577.
## 10           20 RL                   5 1Story              136615.
## # ... with 166 more rows, and 1 more variable: sale_price_std <dbl>

summary_model <- all_data %>% 
  left_join(y = summary_model_train, 
            by = c("ms_sub_class"="ms_sub_class",
                   "ms_zoning" = "ms_zoning",
                   "overall_qual"="overall_qual",
                   "house_style"="house_style")) %>% 
  select(sale_price_mean, sale_price_std)
summary_model

## # A tibble: 2,900 x 2
##    sale_price_mean sale_price_std
##              <dbl>          <dbl>
##  1         225003.         43683.
##  2         170177.         29601.
##  3         225003.         43683.
##  4         195050          44243.
##  5         287920.         62364.
##  6         130877.         26620.
##  7         282824.         59485.
##  8         225003.         43683.
##  9         154075          37919.
## 10         118000             NA 
## # ... with 2,890 more rows

summary_model$sale_price_mean[is.na(summary_model$sale_price_mean)] <- 0
summary_model$sale_price_std[is.na(summary_model$sale_price_std)] <- 0

all_data <- bind_cols(all_data, summary_model) 
all_data

## # A tibble: 2,900 x 83
##       id ms_sub_class ms_zoning lot_frontage lot_area street alley lot_shape
##    <dbl>        <dbl> <chr>            <dbl>    <dbl> <chr>  <chr> <chr>    
##  1     1           60 RL                  65     8450 Pave   <NA>  Reg      
##  2     2           20 RL                  80     9600 Pave   <NA>  Reg      
##  3     3           60 RL                  68    11250 Pave   <NA>  IR1      
##  4     4           70 RL                  60     9550 Pave   <NA>  IR1      
##  5     5           60 RL                  84    14260 Pave   <NA>  IR1      
##  6     6           50 RL                  85    14115 Pave   <NA>  IR1      
##  7     7           20 RL                  75    10084 Pave   <NA>  Reg      
##  8     8           60 RL                  NA    10382 Pave   <NA>  IR1      
##  9     9           50 RM                  51     6120 Pave   <NA>  Reg      
## 10    10          190 RL                  50     7420 Pave   <NA>  Reg      
## # ... with 2,890 more rows, and 75 more variables: land_contour <chr>,
## #   utilities <chr>, lot_config <chr>, land_slope <chr>, neighborhood <chr>,
## #   condition1 <chr>, condition2 <chr>, bldg_type <chr>, house_style <chr>,
## #   overall_qual <dbl>, overall_cond <dbl>, year_built <dbl>,
## #   year_remod_add <dbl>, roof_style <chr>, roof_matl <chr>, exterior1st <chr>,
## #   exterior2nd <chr>, mas_vnr_type <chr>, mas_vnr_area <dbl>,
## #   exter_qual <chr>, exter_cond <chr>, foundation <chr>, bsmt_qual <chr>,
## #   bsmt_cond <chr>, bsmt_exposure <chr>, bsmt_fin_type1 <chr>,
## #   bsmt_fin_sf1 <dbl>, bsmt_fin_type2 <chr>, bsmt_fin_sf2 <dbl>,
…
5.3 juice the all_data2 and split

all_data2 <- juice(housing_recipe)
all_data2

## # A tibble: 2,900 x 97
##    ms_sub_class ms_zoning lot_frontage lot_area  street alley lot_shape
##           <dbl>     <dbl>        <dbl>    <dbl>   <dbl> <dbl>     <dbl>
##  1        0.722   -0.0317     -0.00472  -0.0496 0.00379 0.109      1.05
##  2       -4.28    -0.0317      0.200     0.0779 0.00379 0.109      1.05
##  3        0.722   -0.0317      0.0397    0.237  0.00379 0.109     -1.95
##  4        1.72    -0.0317     -0.0835    0.0727 0.00379 0.109     -1.95
##  5        0.722   -0.0317      0.248     0.474  0.00379 0.109     -1.95
##  6       -0.278   -0.0317      0.260     0.463  0.00379 0.109     -1.95
##  7       -4.28    -0.0317      0.136     0.127  0.00379 0.109      1.05
##  8        0.722   -0.0317      0         0.156  0.00379 0.109     -1.95
##  9       -0.278    0.968      -0.243    -0.372  0.00379 0.109      1.05
## 10       10.7     -0.0317     -0.263    -0.180  0.00379 0.109      1.05
## # ... with 2,890 more rows, and 90 more variables: land_contour <dbl>,
## #   utilities <dbl>, lot_config <dbl>, land_slope <dbl>, neighborhood <dbl>,
## #   condition1 <dbl>, condition2 <dbl>, bldg_type <dbl>, house_style <dbl>,
## #   overall_qual <dbl>, overall_cond <dbl>, year_built <dbl>,
## #   year_remod_add <dbl>, roof_style <dbl>, roof_matl <dbl>, exterior1st <dbl>,
## #   exterior2nd <dbl>, mas_vnr_type <dbl>, mas_vnr_area <dbl>,
## #   exter_qual <dbl>, exter_cond <dbl>, foundation <dbl>, bsmt_qual <dbl>,
## #   bsmt_cond <dbl>, bsmt_exposure <dbl>, bsmt_fin_type1 <dbl>,
## #   bsmt_fin_sf1 <dbl>, bsmt_fin_type2 <dbl>, bsmt_fin_sf2 <dbl>,
…
library(tictoc)
tic()
tune_result <- workflow %>% 
  tune_grid(validation_split,
            grid = param_grid,
            metrics = metric_set(rmse))
toc()

## 597.86 sec elapsed

tune_result %>% 
  collect_metrics()

## # A tibble: 100 x 8
##     mtry min_n .metric .estimator  mean     n std_err .config               
##    <int> <int> <chr>   <chr>      <dbl> <int>   <dbl> <chr>                 
##  1    13    36 rmse    standard   0.123    10 0.00575 Preprocessor1_Model001
##  2    92    34 rmse    standard   0.126    10 0.00576 Preprocessor1_Model002
##  3    11    18 rmse    standard   0.120    10 0.00575 Preprocessor1_Model003
##  4    48    34 rmse    standard   0.124    10 0.00587 Preprocessor1_Model004
##  5    68    31 rmse    standard   0.124    10 0.00585 Preprocessor1_Model005
##  6    88    18 rmse    standard   0.124    10 0.00571 Preprocessor1_Model006
##  7    68    26 rmse    standard   0.123    10 0.00573 Preprocessor1_Model007
##  8    20    38 rmse    standard   0.123    10 0.00588 Preprocessor1_Model008
##  9    80    38 rmse    standard   0.126    10 0.00583 Preprocessor1_Model009
## 10    64    29 rmse    standard   0.124    10 0.00582 Preprocessor1_Model010
## # ... with 90 more rows
…
## # A tibble: 6 x 1
##   .pred
##   <dbl>
## 1  11.8
## 2  12.0
## 3  12.1
## 4  12.1
## 5  12.2
## 6  12.1

result

## # A tibble: 1,459 x 1
##    .pred
##    <dbl>
##  1  11.8
##  2  12.0
##  3  12.1
##  4  12.1
##  5  12.2
##  6  12.1
##  7  12.0
##  8  12.1
##  9  12.1
## 10  11.7
## # ... with 1,449 more rows
…
